Depth = 1
====================================

  4 X 4

Alphabeta expanded total: 3 nodes
Minimax expanded total: 11 nodes

Minimax expanded total: 3 nodes
Alphabeta expanded total: 11 nodes
  
  6 X 6

Alphabeta expadned total: 91
Minimax expanded total: 29


Minimax expanded total: 91 nodes
Alphabeta expanded total: 29 nodes

  8 X 8
Alphabeta expanded total: 200 nodes
Minimax expanded total: 46 nodes


Minimax expanded total: 200 nodes
Alphabeta expanded total: 46 nodes

====================================
Depth = 2
=====================================

  4 X 4
Minimax expanded: 15
alphabeta expanded: 23

alphabeta expanded: 15
minimax expanded: 32

  6 X 6

minimax expanded: 58355
alphabeta expanded: 3313

alphabeta expanded: 5195
minimax expanded: 16051

  8 X 8

minimax expanded: 2082024655
alphabeta expanded: 985342

alphabeta expanded: 205313
minimax expanded: 1275019885

====================================
Depth = 3
====================================

  4 X 4

Minimax expadned: 41
alphabeta expanded: 67

alphabeta expanded: 29
minimax expanded: 67

  6 X 6

minimax expanded: 313793165
alphabeta expanded: 477714055



  8 X 8


Minimax expanded total:
Alphabeta expanded total:

