LASH:> env
alpha                  = 0.5
epsilon                = 0.0
gamma                  = 1.0
hardCrashing           = false
minExplorations        = 1
progressReportDelay    = 0
verboseSimulation      = false
verboseSimulationDelay = 0
RLASH:> set epsilon=0.0000000001
RLASH:> set gamma=0.75
RLASH:> map data/R-track.txt
RLASH:> make vi
RLASH:> iterate oo
Detected convergence at agent iteration 39.
RLASH:> sim 100
Simulation scores: -25.00 -22.00 -25.00 -21.00 -24.00 -23.00 -24.00 -23.00
-22.00 -25.00 -23.00 -21.00 -25.00 -24.00 -25.00 -21.00 -24.00 -27.00 -29.00
-24.00 -23.00 -24.00 -23.00 -23.00 -25.00 -26.00 -26.00 -23.00 -23.00 -21.00
-23.00 -23.00 -27.00 -27.00 -26.00 -23.00 -23.00 -25.00 -24.00 -22.00 -23.00
-22.00 -29.00 -25.00 -23.00 -26.00 -25.00 -24.00 -26.00 -22.00 -26.00 -25.00
-25.00 -25.00 -22.00 -25.00 -24.00 -24.00 -21.00 -22.00 -25.00 -24.00 -21.00
-23.00 -27.00 -25.00 -23.00 -23.00 -22.00 -22.00 -25.00 -21.00 -26.00 -26.00
-27.00 -21.00 -21.00 -21.00 -24.00 -27.00 -25.00 -23.00 -26.00 -21.00 -22.00
-26.00 -22.00 -25.00 -24.00 -24.00 -22.00 -22.00 -23.00 -22.00 -22.00 -26.00
-22.00 -22.00 -22.00 -28.00
Average simulation score: -23.84

